Erik Wojcik - Comparing Apple (AAPL) & S&P 500 (SPY) Using Capital Asset Pricing Model
…
8 Capital Asset Price Model for Apple from 2000-2023

library(tidyquant)
library(tidyverse)

# Import stock prices
stock_prices <- c("AAPL") %>%
    tq_get(get  = "stock.prices",
           from = today() - years(23)) %>%
    group_by(symbol)

stock_prices

# A tibble: 5,786 × 8
# Groups:   symbol [1]
   symbol date        open  high   low close    volume adjusted
   <chr>  <date>     <dbl> <dbl> <dbl> <dbl>     <dbl>    <dbl>
 1 AAPL   2000-05-08 1.00  1.02  0.982 0.983 184900800    0.837
 2 AAPL   2000-05-09 0.985 0.993 0.936 0.941 327140800    0.801
 3 AAPL   2000-05-10 0.929 0.938 0.882 0.887 535091200    0.755
 4 AAPL   2000-05-11 0.905 0.931 0.884 0.918 499744000    0.781
 5 AAPL   2000-05-12 0.946 0.987 0.935 0.961 306913600    0.818
 6 AAPL   2000-05-15 0.965 0.965 0.894 0.902 678932800    0.768
 7 AAPL   2000-05-16 0.933 0.974 0.917 0.944 440451200    0.803
 8 AAPL   2000-05-17 0.925 0.926 0.896 0.905 398092800    0.770
 9 AAPL   2000-05-18 0.920 0.937 0.898 0.900 373777600    0.766
10 AAPL   2000-05-19 0.886 0.886 0.834 0.839 740667200    0.714
# ℹ 5,776 more rows

Ra <- stock_prices %>%
    tq_transmute(select     = adjusted, 
                 mutate_fun = periodReturn, 
                 period     = "yearly", 
                 col_rename = "Ra")
Ra

# A tibble: 24 × 3
# Groups:   symbol [1]
   symbol date           Ra
   <chr>  <date>      <dbl>
 1 AAPL   2000-12-29 -0.730
 2 AAPL   2001-12-31  0.472
 3 AAPL   2002-12-31 -0.346
 4 AAPL   2003-12-31  0.491
 5 AAPL   2004-12-31  2.01 
 6 AAPL   2005-12-30  1.23 
 7 AAPL   2006-12-29  0.180
 8 AAPL   2007-12-31  1.33 
 9 AAPL   2008-12-31 -0.569
10 AAPL   2009-12-31  1.47 
# ℹ 14 more rows
…
      date                  Rb          
 Min.   :2000-12-29   Min.   :-0.38486  
 1st Qu.:2006-09-29   1st Qu.:-0.02104  
 Median :2012-06-30   Median : 0.09264  
 Mean   :2012-06-20   Mean   : 0.06095  
 3rd Qu.:2018-03-30   3rd Qu.: 0.17049  
 Max.   :2023-05-05   Max.   : 0.29601  

#Average yearly return is .004846

RaRb <- left_join(Ra, Rb, by = c("date" = "date"))
RaRb

# A tibble: 24 × 4
# Groups:   symbol [1]
   symbol date           Ra      Rb
   <chr>  <date>      <dbl>   <dbl>
 1 AAPL   2000-12-29 -0.730 -0.0729
 2 AAPL   2001-12-31  0.472 -0.130 
 3 AAPL   2002-12-31 -0.346 -0.234 
 4 AAPL   2003-12-31  0.491  0.264 
 5 AAPL   2004-12-31  2.01   0.0899
 6 AAPL   2005-12-30  1.23   0.0300
 7 AAPL   2006-12-29  0.180  0.136 
 8 AAPL   2007-12-31  1.33   0.0353
 9 AAPL   2008-12-31 -0.569 -0.385 
10 AAPL   2009-12-31  1.47   0.235 
# ℹ 14 more rows
…
